^C:\USERS\SAMSUNG\DOCUMENTS\VISUAL STUDIO 2013\PROJECTS\ANN\ANN\DEBUG\ANN.OBJ
C:\USERS\SAMSUNG\DOCUMENTS\VISUAL STUDIO 2013\PROJECTS\ANN\DEBUG\ANN.ILK
C:\USERS\SAMSUNG\DOCUMENTS\VISUAL STUDIO 2013\PROJECTS\ANN\DEBUG\ANN.EXE
C:\USERS\SAMSUNG\DOCUMENTS\VISUAL STUDIO 2013\PROJECTS\ANN\DEBUG\ANN.PDB
