^C:\OPENCV\PROJECTS\CLI\CLI\DEBUG\.NETFRAMEWORK,VERSION=V4.5.ASSEMBLYATTRIBUTES.OBJ|C:\OPENCV\PROJECTS\CLI\CLI\DEBUG\APP.RES|C:\OPENCV\PROJECTS\CLI\CLI\DEBUG\ASSEMBLYINFO.OBJ|C:\OPENCV\PROJECTS\CLI\CLI\DEBUG\CLI.OBJ|C:\OPENCV\PROJECTS\CLI\CLI\DEBUG\STDAFX.OBJ
C:\WINDOWS\GLOBALIZATION\SORTING\SORTDEFAULT.NLS
C:\OPENCV\BUILD\X86\VC12\LIB\OPENCV_CALIB3D2413.LIB
C:\OPENCV\BUILD\X86\VC12\LIB\OPENCV_CONTRIB2413.LIB
C:\OPENCV\BUILD\X86\VC12\LIB\OPENCV_CORE2413.LIB
C:\OPENCV\BUILD\X86\VC12\LIB\OPENCV_FEATURES2D2413.LIB
C:\OPENCV\BUILD\X86\VC12\LIB\OPENCV_FLANN2413.LIB
C:\OPENCV\BUILD\X86\VC12\LIB\OPENCV_GPU2413.LIB
C:\OPENCV\BUILD\X86\VC12\LIB\OPENCV_HIGHGUI2413.LIB
C:\OPENCV\BUILD\X86\VC12\LIB\OPENCV_IMGPROC2413.LIB
C:\OPENCV\BUILD\X86\VC12\LIB\OPENCV_LEGACY2413.LIB
C:\OPENCV\BUILD\X86\VC12\LIB\OPENCV_ML2413.LIB
C:\OPENCV\BUILD\X86\VC12\LIB\OPENCV_NONFREE2413.LIB
C:\OPENCV\BUILD\X86\VC12\LIB\OPENCV_OBJDETECT2413.LIB
C:\OPENCV\BUILD\X86\VC12\LIB\OPENCV_OCL2413.LIB
C:\OPENCV\BUILD\X86\VC12\LIB\OPENCV_PHOTO2413.LIB
C:\OPENCV\BUILD\X86\VC12\LIB\OPENCV_STITCHING2413.LIB
C:\OPENCV\BUILD\X86\VC12\LIB\OPENCV_SUPERRES2413.LIB
C:\OPENCV\BUILD\X86\VC12\LIB\OPENCV_VIDEO2413.LIB
C:\OPENCV\BUILD\X86\VC12\LIB\OPENCV_VIDEOSTAB2413.LIB
C:\PROGRAM FILES (X86)\WINDOWS KITS\8.1\LIB\WINV6.3\UM\X86\KERNEL32.LIB
C:\PROGRAM FILES (X86)\WINDOWS KITS\8.1\LIB\WINV6.3\UM\X86\USER32.LIB
C:\PROGRAM FILES (X86)\WINDOWS KITS\8.1\LIB\WINV6.3\UM\X86\GDI32.LIB
C:\PROGRAM FILES (X86)\WINDOWS KITS\8.1\LIB\WINV6.3\UM\X86\WINSPOOL.LIB
C:\PROGRAM FILES (X86)\WINDOWS KITS\8.1\LIB\WINV6.3\UM\X86\COMDLG32.LIB
C:\PROGRAM FILES (X86)\WINDOWS KITS\8.1\LIB\WINV6.3\UM\X86\ADVAPI32.LIB
C:\PROGRAM FILES (X86)\WINDOWS KITS\8.1\LIB\WINV6.3\UM\X86\SHELL32.LIB
C:\PROGRAM FILES (X86)\WINDOWS KITS\8.1\LIB\WINV6.3\UM\X86\OLE32.LIB
C:\PROGRAM FILES (X86)\WINDOWS KITS\8.1\LIB\WINV6.3\UM\X86\OLEAUT32.LIB
C:\PROGRAM FILES (X86)\WINDOWS KITS\8.1\LIB\WINV6.3\UM\X86\UUID.LIB
C:\PROGRAM FILES (X86)\WINDOWS KITS\8.1\LIB\WINV6.3\UM\X86\ODBC32.LIB
C:\PROGRAM FILES (X86)\WINDOWS KITS\8.1\LIB\WINV6.3\UM\X86\ODBCCP32.LIB
C:\OPENCV\PROJECTS\CLI\CLI\DEBUG\APP.RES
C:\OPENCV\PROJECTS\CLI\CLI\DEBUG\ASSEMBLYINFO.OBJ
C:\OPENCV\PROJECTS\CLI\CLI\DEBUG\CLI.OBJ
C:\OPENCV\PROJECTS\CLI\CLI\DEBUG\STDAFX.OBJ
C:\OPENCV\PROJECTS\CLI\CLI\DEBUG\.NETFRAMEWORK,VERSION=V4.5.ASSEMBLYATTRIBUTES.OBJ
C:\PROGRAM FILES (X86)\MICROSOFT VISUAL STUDIO 12.0\VC\BIN\LINK.EXE
C:\WINDOWS\SYSTEM32\TZRES.DLL
C:\WINDOWS\MICROSOFT.NET\FRAMEWORK\V2.0.50727\MSCORWKS.DLL
C:\WINDOWS\MICROSOFT.NET\FRAMEWORK\V4.0.30319\CLR.DLL
C:\PROGRAM FILES (X86)\MICROSOFT VISUAL STUDIO 12.0\VC\BIN\LINK.EXE.CONFIG
C:\PROGRAM FILES (X86)\MICROSOFT VISUAL STUDIO 12.0\VC\LIB\MSVCRTD.LIB
C:\PROGRAM FILES (X86)\MICROSOFT VISUAL STUDIO 12.0\VC\LIB\OLDNAMES.LIB
C:\PROGRAM FILES (X86)\MICROSOFT VISUAL STUDIO 12.0\VC\LIB\MSVCMRTD.LIB
C:\PROGRAM FILES (X86)\WINDOWS KITS\8.1\LIB\WINV6.3\UM\X86\MSCOREE.LIB
C:\PROGRAM FILES (X86)\MICROSOFT VISUAL STUDIO 12.0\VC\LIB\MSVCPRTD.LIB
C:\PROGRAM FILES (X86)\WINDOWS KITS\8.1\BIN\X86\RC.EXE
C:\PROGRAM FILES (X86)\MICROSOFT VISUAL STUDIO 12.0\VC\BIN\CVTRES.EXE
